…
``` r
distances <- 
  dat %>%
  select(shot_distance, shot_made_flag) %>%
  group_by(shot_distance) %>%
  summarize(
    made_shot_prop = length(shot_made_flag[shot_made_flag == 'made shot']) / n()
  ) %>%
  arrange(shot_distance)

distances
```

    ## # A tibble: 56 x 2
    ##    shot_distance made_shot_prop
    ##            <int>          <dbl>
    ##  1             0          0.841
    ##  2             1          0.668
    ##  3             2          0.534
    ##  4             3          0.373
    ##  5             4          0.411
    ##  6             5          0.286
    ##  7             6          0.396
    ##  8             7          0.395
    ##  9             8          0.463
    ## 10             9          0.321
    ## # ... with 46 more rows
…
-   What distances tend to have a percentage (of making a shot) of 50% or more?
    According to the graph, the distances 0,1,2,12,16,18,21,30,51 have a percentage of 50 or more.

``` r
data <- dat %>%
  select(name ,minute, period) %>%
  group_by(name,minute, period) %>%
  summarize(
    total_shots = n()
  ) %>%
  arrange(minute)
data
```

    ## # A tibble: 233 x 4
    ## # Groups:   name, minute [233]
    ##    name           minute period total_shots
    ##    <fct>           <int>  <int>       <int>
    ##  1 Draymond Green      1      1          18
    ##  2 Kevin Durant        1      1          31
    ##  3 Klay Thompson       1      1          35
    ##  4 Stephen Curry       1      1          21
    ##  5 Draymond Green      2      1          10
    ##  6 Kevin Durant        2      1          26
    ##  7 Klay Thompson       2      1          42
    ##  8 Stephen Curry       2      1          28
    ##  9 Draymond Green      3      1          21
    ## 10 Kevin Durant        3      1          26
    ## # ... with 223 more rows
…
